QUERY ID,SUBJECT ID,START QUERY,END QUERY,START SUBJECT,END SUBJECT,QUERY COVERAGE,PERCENT IDENTITY,E VALUE,BIT SCORE,ANI,AF
lcl|NC_002932.3_cds_WP_010931705.1_11,lcl|NC_010803.1_cds_WP_012467363.1_2436,145,1032,142,1029,84,84.045,0.0,854,0.785636963379356,0.06170016183622649
lcl|NC_002932.3_cds_WP_010931760.1_65,lcl|NC_010803.1_cds_WP_012467187.1_2259,73,1076,73,1085,91,72.852,2.20e-88,322,0.785636963379356,0.06170016183622649
lcl|NC_002932.3_cds_WP_010931788.1_91,lcl|NC_010803.1_cds_WP_012467304.1_2374,1,897,1,897,91,76.022,1.87e-128,455,0.785636963379356,0.06170016183622649
lcl|NC_002932.3_cds_WP_010931798.1_99,lcl|NC_010803.1_cds_WP_012465055.1_67,88,1559,73,1544,92,78.085,0.0,918,0.785636963379356,0.06170016183622649
lcl|NC_002932.3_cds_WP_226986826.1_105,lcl|NC_010803.1_cds_WP_012465060.1_72,1,1104,58,1161,97,80.325,0.0,832,0.785636963379356,0.06170016183622649
lcl|NC_002932.3_cds_WP_010931806.1_107,lcl|NC_010803.1_cds_WP_012465062.1_74,1,1298,1,1298,98,81.470,0.0,1057,0.785636963379356,0.06170016183622649
lcl|NC_002932.3_cds_WP_010931810.1_110,lcl|NC_010803.1_cds_WP_012465065.1_77,1,1185,1,1185,99,79.310,0.0,826,0.785636963379356,0.06170016183622649
lcl|NC_002932.3_cds_WP_010931817.1_116,lcl|NC_010803.1_cds_WP_012465070.1_82,1,1065,1,1065,99,77.332,1.89e-178,621,0.785636963379356,0.06170016183622649
lcl|NC_002932.3_cds_WP_010931827.1_125,lcl|NC_010803.1_cds_WP_012465081.1_93,90,1332,90,1332,93,77.707,0.0,745,0.785636963379356,0.06170016183622649
lcl|NC_002932.3_cds_WP_010931835.1_133,lcl|NC_010803.1_cds_WP_012465090.1_102,1,2396,1,2396,97,80.208,0.0,1788,0.785636963379356,0.06170016183622649
lcl|NC_002932.3_cds_WP_010931836.1_134,lcl|NC_010803.1_cds_WP_012465092.1_104,1,1618,1,1618,95,80.321,0.0,1221,0.785636963379356,0.06170016183622649
lcl|NC_002932.3_cds_WP_010931845.1_142,lcl|NC_010803.1_cds_WP_012465172.1_192,1,421,1,421,99,80.378,1.07e-87,318,0.785636963379356,0.06170016183622649
lcl|NC_002932.3_cds_WP_164927192.1_146,lcl|NC_010803.1_cds_WP_012465176.1_196,1,3893,34,3926,99,78.095,0.0,2436,0.785636963379356,0.06170016183622649
lcl|NC_002932.3_cds_WP_010931850.1_147,lcl|NC_010803.1_cds_WP_012465177.1_197,1,4373,1,4370,98,79.157,0.0,3003,0.785636963379356,0.06170016183622649
lcl|NC_002932.3_cds_WP_010931857.1_154,lcl|NC_010803.1_cds_WP_012465184.1_204,1,1880,1,1880,99,80.413,0.0,1423,0.785636963379356,0.06170016183622649
lcl|NC_002932.3_cds_WP_010931867.1_163,lcl|NC_010803.1_cds_WP_012465196.1_216,6,1224,6,1218,99,75.726,1.32e-165,579,0.785636963379356,0.06170016183622649
lcl|NC_002932.3_cds_WP_010931886.1_183,lcl|NC_010803.1_cds_WP_012465232.1_252,1,1322,1,1322,96,80.136,0.0,985,0.785636963379356,0.06170016183622649
lcl|NC_002932.3_cds_WP_010931980.1_269,lcl|NC_010803.1_cds_WP_012465323.1_341,36,1746,37,1752,98,82.995,0.0,1541,0.785636963379356,0.06170016183622649
lcl|NC_002932.3_cds_WP_010931985.1_274,lcl|NC_010803.1_cds_WP_012465327.1_345,1,534,1,534,100,77.383,4.88e-87,316,0.785636963379356,0.06170016183622649
lcl|NC_002932.3_cds_WP_010932008.1_296,lcl|NC_010803.1_cds_WP_012466680.1_1731,1,833,1,834,98,72.242,1.35e-64,243,0.785636963379356,0.06170016183622649
lcl|NC_002932.3_cds_WP_164926842.1_327,lcl|NC_010803.1_cds_WP_012465524.1_535,1,1160,1,1160,89,80.343,0.0,874,0.785636963379356,0.06170016183622649
lcl|NC_002932.3_cds_WP_010932043.1_329,lcl|NC_010803.1_cds_WP_012465526.1_537,1,2219,1,2219,99,76.964,0.0,1240,0.785636963379356,0.06170016183622649
lcl|NC_002932.3_cds_WP_010932054.1_337,lcl|NC_010803.1_cds_WP_012465603.1_616,1,927,1,927,99,78.801,7.65e-177,616,0.785636963379356,0.06170016183622649
lcl|NC_002932.3_cds_WP_010932061.1_343,lcl|NC_010803.1_cds_WP_012465695.1_701,7,1250,4,1244,96,69.755,5.95e-45,178,0.785636963379356,0.06170016183622649
lcl|NC_002932.3_cds_WP_164926853.1_373,lcl|NC_010803.1_cds_WP_012466838.1_1898,20,4586,21,4583,99,74.794,0.0,1982,0.785636963379356,0.06170016183622649
lcl|NC_002932.3_cds_WP_010932095.1_376,lcl|NC_010803.1_cds_WP_012466835.1_1895,103,1266,94,1259,88,78.213,0.0,734,0.785636963379356,0.06170016183622649
lcl|NC_002932.3_cds_WP_010932109.1_386,lcl|NC_010803.1_cds_WP_012465972.1_982,1,3780,1,3780,100,82.208,0.0,3230,0.785636963379356,0.06170016183622649
lcl|NC_002932.3_cds_WP_164926858.1_391,lcl|NC_010803.1_cds_WP_012465976.1_986,2,3717,2,3717,99,78.661,0.0,2431,0.785636963379356,0.06170016183622649
lcl|NC_002932.3_cds_WP_010932217.1_480,lcl|NC_010803.1_cds_WP_012465472.1_485,1,1622,1,1622,99,83.980,0.0,1555,0.785636963379356,0.06170016183622649
lcl|NC_002932.3_cds_WP_226986881.1_525,lcl|NC_010803.1_cds_WP_223294140.1_888,1,230,19,248,93,92.609,7.69e-92,331,0.785636963379356,0.06170016183622649
lcl|NC_002932.3_cds_WP_010932299.1_550,lcl|NC_010803.1_cds_WP_041465655.1_702,1,1551,1,1552,97,73.966,1.33e-171,599,0.785636963379356,0.06170016183622649
lcl|NC_002932.3_cds_WP_010932304.1_555,lcl|NC_010803.1_cds_WP_012465701.1_707,1,461,1,461,96,83.731,3.21e-123,436,0.785636963379356,0.06170016183622649
lcl|NC_002932.3_cds_WP_010932327.1_578,lcl|NC_010803.1_cds_WP_012465721.1_728,1,1770,1,1770,93,79.526,0.0,1258,0.785636963379356,0.06170016183622649
lcl|NC_002932.3_cds_WP_010932339.1_588,lcl|NC_010803.1_cds_WP_012465731.1_738,6,957,3,954,99,73.728,5.29e-99,357,0.785636963379356,0.06170016183622649
lcl|NC_002932.3_cds_WP_010932403.1_646,lcl|NC_010803.1_cds_WP_012466558.1_1605,1,1416,1,1416,100,80.661,0.0,1092,0.785636963379356,0.06170016183622649
lcl|NC_002932.3_cds_WP_010932452.1_688,lcl|NC_010803.1_cds_WP_012465806.1_814,22,1019,58,1055,92,80.279,0.0,747,0.785636963379356,0.06170016183622649
lcl|NC_002932.3_cds_WP_010932533.1_755,lcl|NC_010803.1_cds_WP_012465658.1_669,64,1190,67,1193,90,79.313,0.0,780,0.785636963379356,0.06170016183622649
lcl|NC_002932.3_cds_WP_164926964.1_843,lcl|NC_010803.1_cds_WP_012466119.1_1139,58,2403,58,2403,97,81.009,0.0,1851,0.785636963379356,0.06170016183622649
lcl|NC_002932.3_cds_WP_010932655.1_861,lcl|NC_010803.1_cds_WP_012465916.1_925,31,1687,31,1690,94,76.074,0.0,841,0.785636963379356,0.06170016183622649
lcl|NC_002932.3_cds_WP_010932660.1_866,lcl|NC_010803.1_cds_WP_012465921.1_930,1,1148,1,1148,97,81.391,0.0,935,0.785636963379356,0.06170016183622649
lcl|NC_002932.3_cds_WP_010932748.1_946,lcl|NC_010803.1_cds_WP_012466295.1_1315,23,1717,26,1729,98,78.463,0.0,1088,0.785636963379356,0.06170016183622649
lcl|NC_002932.3_cds_WP_010932792.1_982,lcl|NC_010803.1_cds_WP_012466194.1_1216,1,1133,1,1130,94,78.998,0.0,765,0.785636963379356,0.06170016183622649
lcl|NC_002932.3_cds_WP_010932826.1_1010,lcl|NC_010803.1_cds_WP_012466325.1_1347,6,872,3,869,91,74.800,4.02e-105,377,0.785636963379356,0.06170016183622649
lcl|NC_002932.3_cds_WP_010932877.1_1061,lcl|NC_010803.1_cds_WP_012466049.1_1066,61,973,61,973,94,75.082,2.41e-117,418,0.785636963379356,0.06170016183622649
lcl|NC_002932.3_cds_WP_010932882.1_1067,lcl|NC_010803.1_cds_WP_012466044.1_1061,1,573,1,573,95,76.511,1.20e-83,305,0.785636963379356,0.06170016183622649
lcl|NC_002932.3_cds_WP_010932909.1_1091,lcl|NC_010803.1_cds_WP_041465690.1_1171,103,1973,106,1976,82,75.425,0.0,891,0.785636963379356,0.06170016183622649
lcl|NC_002932.3_cds_WP_010932964.1_1138,lcl|NC_010803.1_cds_1447,13,3812,13,3825,99,77.561,0.0,2248,0.785636963379356,0.06170016183622649
lcl|NC_002932.3_cds_WP_010932965.1_1139,lcl|NC_010803.1_cds_WP_012466420.1_1448,1,1853,1,1844,99,78.133,0.0,1142,0.785636963379356,0.06170016183622649
lcl|NC_002932.3_cds_WP_010932966.1_1140,lcl|NC_010803.1_cds_WP_012466421.1_1449,112,1171,97,1156,90,78.933,0.0,712,0.785636963379356,0.06170016183622649
lcl|NC_002932.3_cds_WP_010932972.1_1146,lcl|NC_010803.1_cds_WP_012466428.1_1456,36,1592,36,1592,82,74.266,0.0,643,0.785636963379356,0.06170016183622649
lcl|NC_002932.3_cds_WP_010933008.1_1179,lcl|NC_010803.1_cds_WP_012466451.1_1483,91,755,91,758,83,71.091,3.70e-35,145,0.785636963379356,0.06170016183622649
lcl|NC_002932.3_cds_WP_010933078.1_1238,lcl|NC_010803.1_cds_WP_150081556.1_884,47,2145,47,2145,98,75.835,0.0,1029,0.785636963379356,0.06170016183622649
lcl|NC_002932.3_cds_WP_010933081.1_1241,lcl|NC_010803.1_cds_WP_012465874.1_882,2,1344,2,1344,99,81.338,0.0,1090,0.785636963379356,0.06170016183622649
lcl|NC_002932.3_cds_WP_010933093.1_1253,lcl|NC_010803.1_cds_WP_012465852.1_860,1,1265,1,1265,99,79.479,0.0,896,0.785636963379356,0.06170016183622649
lcl|NC_002932.3_cds_WP_010933136.1_1290,lcl|NC_010803.1_cds_WP_012467129.1_2199,12,1025,15,1031,96,76.706,2.48e-157,551,0.785636963379356,0.06170016183622649
lcl|NC_002932.3_cds_WP_010933146.1_1300,lcl|NC_010803.1_cds_WP_012466604.1_1653,1,956,1,956,95,78.490,2.96e-176,614,0.785636963379356,0.06170016183622649
lcl|NC_002932.3_cds_WP_164927044.1_1340,lcl|NC_010803.1_cds_WP_012466267.1_1288,31,2376,31,2376,99,81.985,0.0,1989,0.785636963379356,0.06170016183622649
lcl|NC_002932.3_cds_WP_010933201.1_1350,lcl|NC_010803.1_cds_WP_012465646.1_658,1,1586,1,1586,97,83.365,0.0,1461,0.785636963379356,0.06170016183622649
lcl|NC_002932.3_cds_WP_010933202.1_1351,lcl|NC_010803.1_cds_WP_012465645.1_657,1,1378,1,1378,99,81.535,0.0,1133,0.785636963379356,0.06170016183622649
lcl|NC_002932.3_cds_WP_010933207.1_1356,lcl|NC_010803.1_cds_WP_041465864.1_652,102,2229,120,2232,95,73.105,0.0,691,0.785636963379356,0.06170016183622649
lcl|NC_002932.3_cds_WP_010933210.1_1359,lcl|NC_010803.1_cds_WP_012465386.1_402,34,2054,34,2060,92,74.963,0.0,902,0.785636963379356,0.06170016183622649
lcl|NC_002932.3_cds_WP_010933240.1_1387,lcl|NC_010803.1_cds_WP_012465359.1_375,1,202,1,198,89,84.653,7.49e-52,198,0.785636963379356,0.06170016183622649
lcl|NC_002932.3_cds_WP_010933256.1_1402,lcl|NC_010803.1_cds_WP_012466868.1_1929,151,1835,151,1835,91,79.965,0.0,1234,0.785636963379356,0.06170016183622649
lcl|NC_002932.3_cds_WP_010933305.1_1444,lcl|NC_010803.1_cds_WP_012465573.1_586,1,1557,1,1557,100,74.382,0.0,638,0.785636963379356,0.06170016183622649
lcl|NC_002932.3_cds_WP_010933314.1_1451,lcl|NC_010803.1_cds_WP_012465566.1_579,81,2063,80,2066,82,77.321,0.0,1162,0.785636963379356,0.06170016183622649
lcl|NC_002932.3_cds_WP_010933316.1_1452,lcl|NC_010803.1_cds_WP_012465565.1_578,115,1971,115,1971,94,81.569,0.0,1530,0.785636963379356,0.06170016183622649
lcl|NC_002932.3_cds_WP_010933336.1_1471,lcl|NC_010803.1_cds_WP_012465441.1_456,1,1471,1,1471,99,79.512,0.0,1044,0.785636963379356,0.06170016183622649
lcl|NC_002932.3_cds_WP_010933346.1_1481,lcl|NC_010803.1_cds_WP_012465431.1_446,44,2729,44,2729,98,81.458,0.0,2185,0.785636963379356,0.06170016183622649
lcl|NC_002932.3_cds_WP_010933353.1_1485,lcl|NC_010803.1_cds_WP_012465429.1_444,1,2756,1,2759,97,76.390,0.0,1447,0.785636963379356,0.06170016183622649
lcl|NC_002932.3_cds_WP_164927070.1_1494,lcl|NC_010803.1_cds_WP_012466879.1_1940,7,1616,7,1619,99,78.734,0.0,1059,0.785636963379356,0.06170016183622649
lcl|NC_002932.3_cds_WP_010933388.1_1522,lcl|NC_010803.1_cds_WP_041466033.1_1985,139,1035,136,1035,86,78.982,5.16e-174,606,0.785636963379356,0.06170016183622649
lcl|NC_002932.3_cds_WP_010933433.1_1567,lcl|NC_010803.1_cds_WP_012466872.1_1933,1,780,1,780,88,81.586,0.0,643,0.785636963379356,0.06170016183622649
lcl|NC_002932.3_cds_WP_010933465.1_1597,lcl|NC_010803.1_cds_WP_012466705.1_1756,1,258,1,258,100,81.008,5.12e-54,206,0.785636963379356,0.06170016183622649
lcl|NC_002932.3_cds_WP_010933466.1_1598,lcl|NC_010803.1_cds_WP_012466706.1_1757,48,1783,48,1783,97,82.959,0.0,1567,0.785636963379356,0.06170016183622649
lcl|NC_002932.3_cds_WP_010933475.1_1607,lcl|NC_010803.1_cds_WP_012466716.1_1767,13,799,14,799,96,79.087,1.49e-153,538,0.785636963379356,0.06170016183622649
lcl|NC_002932.3_cds_WP_010933476.1_1608,lcl|NC_010803.1_cds_WP_012466717.1_1768,1,1032,1,1032,97,81.836,0.0,865,0.785636963379356,0.06170016183622649
lcl|NC_002932.3_cds_WP_010933478.1_1610,lcl|NC_010803.1_cds_WP_012466728.1_1779,1,1356,1,1356,100,77.908,0.0,832,0.785636963379356,0.06170016183622649
lcl|NC_002932.3_cds_WP_010933479.1_1611,lcl|NC_010803.1_cds_WP_012466729.1_1780,17,992,8,983,95,79.675,0.0,695,0.785636963379356,0.06170016183622649
lcl|NC_002932.3_cds_WP_164927101.1_1636,lcl|NC_010803.1_cds_WP_012466948.1_2010,38,825,38,822,96,79.114,1.50e-153,538,0.785636963379356,0.06170016183622649
lcl|NC_002932.3_cds_WP_010933513.1_1644,lcl|NC_010803.1_cds_WP_012466956.1_2018,1,1359,1,1359,98,77.867,0.0,832,0.785636963379356,0.06170016183622649
lcl|NC_002932.3_cds_WP_226986803.1_1676,lcl|NC_010803.1_cds_WP_012466992.1_2057,108,918,15,825,88,78.064,4.71e-144,507,0.785636963379356,0.06170016183622649
lcl|NC_002932.3_cds_WP_010933552.1_1678,lcl|NC_010803.1_cds_WP_012466994.1_2059,30,1275,30,1275,98,74.270,1.43e-140,496,0.785636963379356,0.06170016183622649
lcl|NC_002932.3_cds_WP_164927114.1_1685,lcl|NC_010803.1_cds_WP_012467010.1_2080,12,717,12,717,96,78.814,3.81e-134,473,0.785636963379356,0.06170016183622649
lcl|NC_002932.3_cds_WP_010933561.1_1686,lcl|NC_010803.1_cds_WP_012467011.1_2081,1,1481,1,1487,99,75.267,0.0,686,0.785636963379356,0.06170016183622649
lcl|NC_002932.3_cds_WP_164927123.1_1728,lcl|NC_010803.1_cds_WP_041466045.1_2113,1,1181,1,1181,98,79.392,0.0,830,0.785636963379356,0.06170016183622649
lcl|NC_002932.3_cds_WP_164927124.1_1731,lcl|NC_010803.1_cds_WP_012467046.1_2115,6,3804,6,3804,99,80.105,0.0,2800,0.785636963379356,0.06170016183622649
lcl|NC_002932.3_cds_WP_010933688.1_1800,lcl|NC_010803.1_cds_WP_012467220.1_2291,1,1472,1,1472,93,82.182,0.0,1262,0.785636963379356,0.06170016183622649
lcl|NC_002932.3_cds_WP_010933690.1_1802,lcl|NC_010803.1_cds_WP_012467222.1_2293,1,1173,1,1170,88,73.818,1.52e-125,446,0.785636963379356,0.06170016183622649
lcl|NC_002932.3_cds_WP_010933702.1_1813,lcl|NC_010803.1_cds_WP_012467236.1_2306,1,3195,1,3195,99,75.325,0.0,1491,0.785636963379356,0.06170016183622649
lcl|NC_002932.3_cds_WP_010933753.1_1860,lcl|NC_010803.1_cds_WP_012467281.1_2350,19,1283,19,1283,98,86.572,0.0,1395,0.785636963379356,0.06170016183622649
lcl|NC_002932.3_cds_WP_010933816.1_1918,lcl|NC_010803.1_cds_WP_012467095.1_2164,1,612,1,612,100,77.362,2.56e-100,361,0.785636963379356,0.06170016183622649
lcl|NC_002932.3_cds_WP_010933839.1_1941,lcl|NC_010803.1_cds_WP_081429901.1_2187,1,840,1,840,100,76.338,7.35e-127,449,0.785636963379356,0.06170016183622649
lcl|NC_002932.3_cds_WP_010933842.1_1944,lcl|NC_010803.1_cds_WP_012467120.1_2190,1,630,1,630,100,74.804,1.27e-73,272,0.785636963379356,0.06170016183622649
lcl|NC_002932.3_cds_WP_010933845.1_1947,lcl|NC_010803.1_cds_WP_012467123.1_2193,1,2115,1,2115,100,80.000,0.0,1557,0.785636963379356,0.06170016183622649
lcl|NC_002932.3_cds_WP_010933868.1_1966,lcl|NC_010803.1_cds_WP_012467175.1_2247,1,1264,1,1263,89,78.014,0.0,787,0.785636963379356,0.06170016183622649
lcl|NC_002932.3_cds_WP_010933887.1_1982,lcl|NC_010803.1_cds_WP_012465018.1_29,1,1389,1,1389,100,82.151,0.0,1186,0.785636963379356,0.06170016183622649
lcl|NC_002932.3_cds_WP_010933896.1_1991,lcl|NC_010803.1_cds_WP_012465668.1_678,94,1653,88,1650,94,79.962,0.0,1144,0.785636963379356,0.06170016183622649
lcl|NC_002932.3_cds_WP_010932533.1_1998,lcl|NC_010803.1_cds_WP_012465658.1_669,64,1190,67,1193,90,79.648,0.0,802,0.785636963379356,0.06170016183622649
lcl|NC_002932.3_cds_WP_164927177.1_2003,lcl|NC_010803.1_cds_WP_012465012.1_23,1,1470,1,1470,100,80.403,0.0,1098,0.785636963379356,0.06170016183622649
lcl|NC_002932.3_cds_WP_010933913.1_2011,lcl|NC_010803.1_cds_WP_012465004.1_15,52,1944,40,1932,97,79.108,0.0,1291,0.785636963379356,0.06170016183622649
lcl|NC_002932.3_cds_WP_010933915.1_2015,lcl|NC_010803.1_cds_WP_012467327.1_2397,93,754,93,754,86,72.496,5.81e-53,204,0.785636963379356,0.06170016183622649
